{
  "employees": [
    {
      "id": 1,
      "name": "John",
      "emp_id": 101,
      "joined_on": "06-06-2018",
      "certified_date": "08-08-2021",
      "issue_certificate": "view certificate"
    },
    {
      "id": 2,
      "name": "Jane",
      "emp_id": 102,
      "joined_on": "02-09-2019",
      "certified_date": "01-01-2021",
      "issue_certificate": "view certificate"
    },
    {
      "id": 3,
      "name": "Alice",
      "emp_id": 103,
      "joined_on": "01-01-2021",
      "certified_date": "01-03-2021",
      "issue_certificate": "view certificate"
    },
    {
      "id": 4,
      "name": "Bob",
      "emp_id": 104,
      "joined_on": "15-05-2020",
      "certified_date": "01-02-2021",
      "issue_certificate": "view certificate"
    }
  ],
  "employeessss": [
    {
      "id": 1,
      "name": "John",
      "emp_id": 101,
      "joined_on": "06-06-2018",
      "certified_date": "08-08-2021",
      "issue_certificate": "view certificate"
    },
    {
      "id": 2,
      "name": "Jane",
      "emp_id": 102,
      "joined_on": "02-09-2019",
      "certified_date": "01-01-2021",
      "issue_certificate": "view certificate"
    },
    {
      "id": 3,
      "name": "Alice",
      "emp_id": 103,
      "joined_on": "01-01-2021",
      "certified_date": "01-03-2021",
      "issue_certificate": "view certificate"
    },
    {
      "id": 4,
      "name": "Bob",
      "emp_id": 104,
      "joined_on": "15-05-2020",
      "certified_date": "01-02-2021",
      "issue_certificate": "view certificate"
    }
  ],
  "courses" : [ 
    {
      "page": 1,
      "per_page": 4,
      "total": 8,
      "total_pages": 2,
      "data": [
          { 
              "id":1,
              "name":"HTML", 
              "tutor":"Abel", 
              "attendees":5,
              "list":["Rahul","Jagan", "Karthik"]
          },
          { 
              "id":2,
              "name":"CSS", 
              "tutor":"Abel", 
              "attendees":4,
              "list":["Mohit","Jagan", "Kiran"]
          },
          { 
              "id":3,
              "name":"Javascript", 
              "tutor":"Abel", 
              "attendees":3,
              "list":["Ashok","Krishna", "Parth"]
          },
          { 
              "id":4,
              "name":"React js", 
              "tutor":"Abel", 
              "attendees":6,
              "list":["Parthu","Rohith", "Sai"]
          }
      ]
    },
    {
        "page": 2,
        "per_page": 4,
        "total": 8,
        "total_pages": 2,
        "data": [
            { 
                "id":1,
                "name":"HTML", 
                "tutor":"Adarsh", 
                "attendees":5,
                "list":["Rahul","Jagan", "Karthik"]
            },
            { 
                "id":2,
                "name":"CSS", 
                "tutor":"Abel", 
                "attendees":4,
                "list":["Mohit","Jagan", "Kiran"]
            },
            { 
                "id":3,
                "name":"Javascript", 
                "tutor":"Akash", 
                "attendees":3,
                "list":["Ashok","Krishna", "Parth"]
            },
            { 
                "id":4,
                "name":"React js", 
                "tutor":"Ben", 
                "attendees":6,
                "list":["Parthu","Rohith", "Sai"]
            }
        ]
      }
    ]
}